<svg width="90" height="24" viewBox="0 0 90 24" fill="none" xmlns="http://www.w3.org/2000/svg">
<path d="M36.42 11.8725C36.1838 12.3038 35.8163 12.6488 35.325 12.9113C34.8337 13.1738 34.2188 13.305 33.4875 13.305H32.1375V16.5188H29.9587V7.5675H33.4912C34.2037 7.5675 34.8075 7.69125 35.3025 7.93875C35.7938 8.18625 36.165 8.52375 36.4125 8.95875C36.66 9.39375 36.7838 9.88875 36.7838 10.4513C36.7763 10.9688 36.6563 11.445 36.42 11.8725ZM34.2525 11.28C34.455 11.085 34.56 10.8075 34.56 10.4513C34.56 10.095 34.4587 9.8175 34.2525 9.6225C34.05 9.4275 33.7388 9.33 33.3225 9.33H32.1375V11.5725H33.3225C33.7388 11.5725 34.0462 11.475 34.2525 11.28Z" fill="black"/>
<path d="M40.5375 9.66749C40.92 9.44249 41.3438 9.32999 41.8125 9.32999V11.6362H41.2125C40.6688 11.6362 40.26 11.7525 39.99 11.9887C39.7163 12.2212 39.5813 12.6337 39.5813 13.2187V16.5225H37.4025V9.40499H39.5813V10.59C39.8363 10.2 40.155 9.89249 40.5375 9.66749Z" fill="black"/>
<path d="M43.7062 16.1737C43.1512 15.8775 42.7125 15.45 42.3937 14.8987C42.075 14.3475 41.9175 13.6987 41.9175 12.96C41.9175 12.2287 42.0787 11.5837 42.4012 11.0287C42.7237 10.4737 43.1662 10.0462 43.7287 9.74624C44.2912 9.44999 44.9175 9.29999 45.615 9.29999C46.3125 9.29999 46.9425 9.44999 47.5012 9.74624C48.0637 10.0425 48.5025 10.47 48.8287 11.0287C49.1512 11.5837 49.3125 12.2287 49.3125 12.96C49.3125 13.6912 49.1475 14.3362 48.8212 14.8912C48.495 15.4462 48.0487 15.8737 47.4825 16.1737C46.9162 16.47 46.2862 16.62 45.5887 16.62C44.8875 16.62 44.2612 16.4737 43.7062 16.1737ZM46.65 14.2762C46.9425 13.9687 47.0887 13.5337 47.0887 12.9637C47.0887 12.3937 46.9462 11.955 46.6612 11.6512C46.3762 11.3437 46.0237 11.1937 45.6075 11.1937C45.1837 11.1937 44.8312 11.3437 44.55 11.6475C44.2687 11.9475 44.13 12.39 44.13 12.9675C44.13 13.5375 44.2687 13.9762 44.5425 14.28C44.82 14.5875 45.165 14.7375 45.5812 14.7375C46.0012 14.7337 46.3575 14.58 46.65 14.2762Z" fill="black"/>
<path d="M51.5737 16.1737C51.0187 15.8775 50.58 15.45 50.2612 14.8987C49.9425 14.3475 49.785 13.6987 49.785 12.96C49.785 12.2287 49.9462 11.5837 50.2687 11.0287C50.5912 10.4737 51.0337 10.0462 51.5962 9.74624C52.1587 9.44999 52.785 9.29999 53.4825 9.29999C54.18 9.29999 54.81 9.44999 55.3687 9.74624C55.9312 10.0425 56.37 10.47 56.6962 11.0287C57.0187 11.5837 57.18 12.2287 57.18 12.96C57.18 13.6912 57.015 14.3362 56.6887 14.8912C56.3625 15.4462 55.9162 15.8737 55.35 16.1737C54.7837 16.47 54.1537 16.62 53.4562 16.62C52.755 16.62 52.1287 16.4737 51.5737 16.1737ZM54.5175 14.2762C54.81 13.9687 54.9562 13.5337 54.9562 12.9637C54.9562 12.3937 54.8137 11.955 54.5287 11.6512C54.2437 11.3437 53.8912 11.1937 53.475 11.1937C53.0512 11.1937 52.6987 11.3437 52.4175 11.6475C52.1362 11.9475 51.9975 12.39 51.9975 12.9675C51.9975 13.5375 52.1362 13.9762 52.41 14.28C52.6875 14.5875 53.0325 14.7375 53.4487 14.7375C53.8687 14.7337 54.225 14.58 54.5175 14.2762Z" fill="black"/>
<path d="M61.395 11.2162H60.2212V16.5187H58.0425V11.2162H57.2512V9.40499H58.0425V9.20249C58.0425 8.32874 58.2937 7.66124 58.7962 7.20749C59.2987 6.75374 60.0337 6.52499 61.0012 6.52499C61.1625 6.52499 61.2825 6.52874 61.3575 6.53624V8.38499C60.9412 8.35874 60.6487 8.41874 60.4762 8.56499C60.3075 8.71124 60.2212 8.96999 60.2212 9.34124V9.40499H61.395V11.2162Z" fill="black"/>
<path d="M64.4962 12.0375L67.9125 16.5H66.7387L63.6037 12.3825L62.8762 16.5H61.9837L63.5512 7.58624H64.4437L63.705 11.7675L68.3212 7.58624H69.4575L64.4962 12.0375Z" fill="#ADADAD"/>
<path d="M73.5862 9.7725C74.0025 9.9975 74.3212 10.305 74.535 10.695C74.7525 11.085 74.8612 11.5312 74.8612 12.0337C74.8612 12.2625 74.8425 12.4687 74.8087 12.645C74.7562 12.9 74.7075 13.1287 74.655 13.335H68.88C68.8537 13.4962 68.8425 13.65 68.8425 13.7925C68.8425 14.4487 69.0412 14.9512 69.435 15.3112C69.8287 15.6675 70.335 15.8475 70.9462 15.8475C71.5312 15.8475 72.0487 15.7087 72.4875 15.4275C72.9262 15.1462 73.2525 14.7675 73.455 14.2912H74.4112C74.1225 14.97 73.6612 15.525 73.0275 15.9562C72.3937 16.3837 71.655 16.6012 70.815 16.6012C69.9487 16.6012 69.2512 16.3537 68.73 15.855C68.2087 15.3562 67.9462 14.6812 67.9462 13.8225C67.9462 13.5675 67.9725 13.3012 68.0212 13.02C68.1487 12.2962 68.4037 11.6662 68.7937 11.1187C69.18 10.575 69.66 10.1587 70.23 9.87C70.8 9.58125 71.415 9.435 72.0787 9.435C72.6675 9.435 73.17 9.5475 73.5862 9.7725ZM73.9537 12.075C73.9537 11.4712 73.7625 11.01 73.38 10.6837C72.9975 10.3612 72.51 10.2 71.9137 10.2C71.4787 10.2 71.0625 10.2937 70.665 10.4812C70.2675 10.6687 69.9187 10.95 69.6187 11.3212C69.3225 11.6962 69.1162 12.1462 69.0075 12.6712H73.89C73.935 12.4387 73.9537 12.2362 73.9537 12.075Z" fill="#ADADAD"/>
<path d="M81.0075 9.7725C81.4238 9.9975 81.7425 10.305 81.9563 10.695C82.1738 11.085 82.2825 11.5312 82.2825 12.0337C82.2825 12.2625 82.2638 12.4687 82.23 12.645C82.1775 12.9 82.1287 13.1287 82.0763 13.335H76.3012C76.275 13.4962 76.2637 13.65 76.2637 13.7925C76.2637 14.4487 76.4625 14.9512 76.8562 15.3112C77.25 15.6675 77.7562 15.8475 78.3675 15.8475C78.9525 15.8475 79.47 15.7087 79.9087 15.4275C80.3475 15.1462 80.6737 14.7675 80.8762 14.2912H81.8325C81.5438 14.97 81.0825 15.525 80.4487 15.9562C79.815 16.3837 79.0763 16.6012 78.2362 16.6012C77.37 16.6012 76.6725 16.3537 76.1512 15.855C75.63 15.3562 75.3675 14.6812 75.3675 13.8225C75.3675 13.5675 75.3937 13.3012 75.4425 13.02C75.57 12.2962 75.825 11.6662 76.215 11.1187C76.6012 10.575 77.0812 10.1587 77.6512 9.87C78.2213 9.58125 78.8362 9.435 79.5 9.435C80.0887 9.435 80.5913 9.5475 81.0075 9.7725ZM81.375 12.075C81.375 11.4712 81.1838 11.01 80.8013 10.6837C80.4188 10.3612 79.9312 10.2 79.335 10.2C78.9 10.2 78.4837 10.2937 78.0862 10.4812C77.6887 10.6687 77.34 10.95 77.04 11.3212C76.7437 11.6962 76.5375 12.1462 76.4287 12.6712H81.3113C81.3563 12.4387 81.375 12.2362 81.375 12.075Z" fill="#ADADAD"/>
<path d="M85.245 9.9C85.785 9.58875 86.3812 9.435 87.0375 9.435C87.8775 9.435 88.5525 9.6825 89.0587 10.1812C89.565 10.68 89.8162 11.355 89.8162 12.2137C89.8162 12.4612 89.79 12.7237 89.7412 13.005C89.6137 13.7175 89.3587 14.3475 88.9762 14.8912C88.5937 15.435 88.125 15.855 87.5662 16.155C87.0075 16.4512 86.4112 16.6012 85.7737 16.6012C85.1175 16.6012 84.5812 16.4475 84.1537 16.1362C83.73 15.825 83.445 15.4387 83.2987 14.97L82.4587 19.7887H81.5662L83.3775 9.53625H84.27L84.0037 11.0662C84.2925 10.6012 84.705 10.2112 85.245 9.9ZM88.8975 12.3562C88.8975 11.685 88.6987 11.16 88.305 10.7812C87.9112 10.4025 87.39 10.215 86.7412 10.215C86.265 10.215 85.8112 10.3312 85.3762 10.56C84.9412 10.7887 84.5737 11.115 84.2662 11.5425C83.9587 11.9662 83.7562 12.4612 83.655 13.02C83.6137 13.2562 83.5912 13.47 83.5912 13.6575C83.5912 14.3212 83.79 14.8462 84.1912 15.24C84.5925 15.63 85.11 15.825 85.7475 15.825C86.2387 15.825 86.7 15.7125 87.1312 15.4875C87.5625 15.2625 87.9262 14.9362 88.2262 14.505C88.5262 14.0737 88.7287 13.575 88.8337 13.005C88.875 12.75 88.8975 12.5362 88.8975 12.3562Z" fill="#ADADAD"/>
<path d="M12 0C5.37375 0 0 5.37375 0 12C0 14.19 0.58875 16.245 1.61625 18.015L8.76375 13.8862C8.4375 13.3312 8.25 12.69 8.25 12C8.25 9.93 9.93 8.25 12 8.25C14.07 8.25 15.75 9.93 15.75 12C15.75 13.7362 14.5688 15.195 12.9638 15.6187L15.1013 23.595C20.2238 22.23 24 17.5537 24 12C24 5.37375 18.6263 0 12 0Z" fill="#ADADAD"/>
<path d="M8.76375 13.8863L1.61625 18.015C3.19125 20.73 5.7975 22.77 8.89875 23.595L11.0363 15.6188C10.0688 15.3638 9.255 14.73 8.76375 13.8863Z" fill="black"/>
</svg>
